Delta 160, 0, 0, 4
UAL 120, 0, 5, 4
Delta 6, 2, 3, 6
Sun Country 420, 3, 8, 3
South West 56, 4, 1, 2
Spirit 96, 3, 4, 5
Frontier 130, 6, 2, 6
UAL 87, 9, 9, 4
South West 462, 3, 6, 2
Spirit 45, 1, 7, 3